power_saving/twdl_11.vcd
$date
	Mon Aug  7 15:05:02 2023
$end
$version
	ModelSim Version 2022.2
$end
$timescale
	1ps
$end
$scope module lusee_top_tst $end
$scope module spec_notch_pf $end
$scope module sfft_fixpt_inst1 $end
$scope module u_dsphdl_FFT $end
$scope module u_twdlROM_11_2 $end
$var wire 1 ! twdl_11_1_re [31] $end
$var wire 1 " twdl_11_1_re [30] $end
$var wire 1 # twdl_11_1_re [29] $end
$var wire 1 $ twdl_11_1_re [28] $end
$var wire 1 % twdl_11_1_re [27] $end
$var wire 1 & twdl_11_1_re [26] $end
$var wire 1 ' twdl_11_1_re [25] $end
$var wire 1 ( twdl_11_1_re [24] $end
$var wire 1 ) twdl_11_1_re [23] $end
$var wire 1 * twdl_11_1_re [22] $end
$var wire 1 + twdl_11_1_re [21] $end
$var wire 1 , twdl_11_1_re [20] $end
$var wire 1 - twdl_11_1_re [19] $end
$var wire 1 . twdl_11_1_re [18] $end
$var wire 1 / twdl_11_1_re [17] $end
$var wire 1 0 twdl_11_1_re [16] $end
$var wire 1 1 twdl_11_1_re [15] $end
$var wire 1 2 twdl_11_1_re [14] $end
$var wire 1 3 twdl_11_1_re [13] $end
$var wire 1 4 twdl_11_1_re [12] $end
$var wire 1 5 twdl_11_1_re [11] $end
$var wire 1 6 twdl_11_1_re [10] $end
$var wire 1 7 twdl_11_1_re [9] $end
$var wire 1 8 twdl_11_1_re [8] $end
$var wire 1 9 twdl_11_1_re [7] $end
$var wire 1 : twdl_11_1_re [6] $end
$var wire 1 ; twdl_11_1_re [5] $end
$var wire 1 < twdl_11_1_re [4] $end
$var wire 1 = twdl_11_1_re [3] $end
$var wire 1 > twdl_11_1_re [2] $end
$var wire 1 ? twdl_11_1_re [1] $end
$var wire 1 @ twdl_11_1_re [0] $end
$var wire 1 A twdl_11_1_im [31] $end
$var wire 1 B twdl_11_1_im [30] $end
$var wire 1 C twdl_11_1_im [29] $end
$var wire 1 D twdl_11_1_im [28] $end
$var wire 1 E twdl_11_1_im [27] $end
$var wire 1 F twdl_11_1_im [26] $end
$var wire 1 G twdl_11_1_im [25] $end
$var wire 1 H twdl_11_1_im [24] $end
$var wire 1 I twdl_11_1_im [23] $end
$var wire 1 J twdl_11_1_im [22] $end
$var wire 1 K twdl_11_1_im [21] $end
$var wire 1 L twdl_11_1_im [20] $end
$var wire 1 M twdl_11_1_im [19] $end
$var wire 1 N twdl_11_1_im [18] $end
$var wire 1 O twdl_11_1_im [17] $end
$var wire 1 P twdl_11_1_im [16] $end
$var wire 1 Q twdl_11_1_im [15] $end
$var wire 1 R twdl_11_1_im [14] $end
$var wire 1 S twdl_11_1_im [13] $end
$var wire 1 T twdl_11_1_im [12] $end
$var wire 1 U twdl_11_1_im [11] $end
$var wire 1 V twdl_11_1_im [10] $end
$var wire 1 W twdl_11_1_im [9] $end
$var wire 1 X twdl_11_1_im [8] $end
$var wire 1 Y twdl_11_1_im [7] $end
$var wire 1 Z twdl_11_1_im [6] $end
$var wire 1 [ twdl_11_1_im [5] $end
$var wire 1 \ twdl_11_1_im [4] $end
$var wire 1 ] twdl_11_1_im [3] $end
$var wire 1 ^ twdl_11_1_im [2] $end
$var wire 1 _ twdl_11_1_im [1] $end
$var wire 1 ` twdl_11_1_im [0] $end
$var wire 1 a twdl_11_1_vld $end
$upscope $end
$upscope $end
$upscope $end
$upscope $end
$upscope $end
$enddefinitions $end
#1000000
0!
0"
0#
0$
0%
0&
0'
0(
0)
0*
0+
0,
0-
0.
0/
00
01
02
03
04
05
06
07
08
09
0:
0;
0<
0=
0>
0?
0@
0A
0B
0C
0D
0E
0F
0G
0H
0I
0J
0K
0L
0M
0N
0O
0P
0Q
0R
0S
0T
0U
0V
0W
0X
0Y
0Z
0[
0\
0]
0^
0_
0`
0a
#1641350000
1"
#2062550000
1a
#2063050000
1A
1B
1D
1G
1I
1K
1L
1M
1N
1O
1Q
1R
1W
1X
1[
1\
1_
1`
0"
1#
1%
1&
1(
1*
10
13
14
15
16
19
1:
1=
1>
1@
#2063150000
0D
0G
0I
0K
0L
0M
0N
0O
0Q
0R
0W
0X
0[
0\
0_
0`
0#
0%
0&
0(
0*
00
03
04
05
06
09
0:
0=
0>
0@
#2063250000
1D
1G
1I
1K
1L
1M
1N
1O
1Q
1R
1W
1X
1[
1\
1_
1`
1!
1"
1$
1'
1)
1+
1,
1-
1.
1/
11
12
17
18
1;
1<
1?
1@
#2063350000
0A
0B
0D
0G
0I
0K
0L
0M
0N
0O
0Q
0R
0W
0X
0[
0\
0_
0`
0!
0$
0'
0)
0+
0,
0-
0.
0/
01
02
07
08
0;
0<
0?
0@
#2063450000
1A
1B
1C
1F
1G
1H
1I
1O
1T
1U
1V
1X
1Z
1\
1]
1`
0"
1#
1$
1%
1'
1(
1+
11
12
14
16
17
18
19
1<
1=
1>
1?
#2063550000
0C
1D
0F
0H
1K
1L
1M
1N
1Q
1R
0T
0U
0V
1W
0Z
1[
0]
1_
0$
1&
0'
1*
0+
10
01
02
13
15
07
08
1:
0<
0?
1@
#2063650000
0D
1F
0G
1J
0K
1P
0Q
0R
1S
1U
0W
0X
1Z
0\
0`
0#
1$
0&
0(
1+
1,
1-
1.
11
12
04
05
06
17
0:
1;
0=
1?
#2063750000
0A
0B
0F
0I
0J
0L
0M
0N
0O
0P
0S
0U
0Z
0[
0_
1"
0$
0%
0*
0+
0,
0-
0.
00
01
02
03
07
09
0;
0>
0?
0@
#2063850000
1A
1B
1F
1I
1J
1L
1M
1N
1O
1P
1S
1U
1Z
1[
1_
0"
1$
1%
1*
1+
1,
1-
1.
10
11
12
13
17
19
1;
1>
1?
1@
#2063950000
1D
0F
1G
0J
1K
0P
1Q
1R
0S
0U
1W
1X
0Z
1\
1`
1!
1"
0%
1'
1)
0*
1/
00
03
18
09
1<
0>
#2064050000
0A
0B
1E
0G
0I
1J
0O
1P
1S
0X
1Y
0\
1^
0$
1&
0'
1*
0+
10
01
02
13
15
07
08
1:
0<
0@
#2064150000
0D
0E
0J
0K
0L
0M
0N
0P
0Q
0R
0S
0W
0Y
0[
0^
0_
0`
0!
0&
0)
0*
0,
0-
0.
0/
00
03
05
0:
0;
0?
#2064650000
1A
1B
1D
1G
1I
1K
1L
1M
1N
1O
1Q
1R
1W
1X
1[
1\
1_
1`
0"
1#
1%
1&
1(
1*
10
13
14
15
16
19
1:
1=
1>
1@
#2064750000
0D
0G
0I
0K
0L
0M
0N
0O
0Q
0R
0W
0X
0[
0\
0_
0`
0#
0%
0&
0(
0*
00
03
04
05
06
09
0:
0=
0>
0@
#2064850000
1D
1G
1I
1K
1L
1M
1N
1O
1Q
1R
1W
1X
1[
1\
1_
1`
1!
1"
1$
1'
1)
1+
1,
1-
1.
1/
11
12
17
18
1;
1<
1?
1@
#2064950000
0A
0B
0D
0G
0I
0K
0L
0M
0N
0O
0Q
0R
0W
0X
0[
0\
0_
0`
0!
0$
0'
0)
0+
0,
0-
0.
0/
01
02
07
08
0;
0<
0?
0@
#2065050000
1A
1B
1C
1F
1G
1H
1I
1O
1T
1U
1V
1X
1Z
1\
1]
1`
0"
1#
1$
1%
1'
1(
1+
11
12
14
16
17
18
19
1<
1=
1>
1?
#2065150000
0C
1D
0F
0H
1K
1L
1M
1N
1Q
1R
0T
0U
0V
1W
0Z
1[
0]
1_
0$
1&
0'
1*
0+
10
01
02
13
15
07
08
1:
0<
0?
1@
#2065250000
0D
1F
0G
1J
0K
1P
0Q
0R
1S
1U
0W
0X
1Z
0\
0`
0#
1$
0&
0(
1+
1,
1-
1.
11
12
04
05
06
17
0:
1;
0=
1?
#2065350000
0A
0B
0F
0I
0J
0L
0M
0N
0O
0P
0S
0U
0Z
0[
0_
1"
0$
0%
0*
0+
0,
0-
0.
00
01
02
03
07
09
0;
0>
0?
0@
#2065450000
1A
1B
1F
1I
1J
1L
1M
1N
1O
1P
1S
1U
1Z
1[
1_
0"
1$
1%
1*
1+
1,
1-
1.
10
11
12
13
17
19
1;
1>
1?
1@
#2065550000
1D
0F
1G
0J
1K
0P
1Q
1R
0S
0U
1W
1X
0Z
1\
1`
1!
1"
0%
1'
1)
0*
1/
00
03
18
09
1<
0>
#2065650000
0A
0B
1E
0G
0I
1J
0O
1P
1S
0X
1Y
0\
1^
0$
1&
0'
1*
0+
10
01
02
13
15
07
08
1:
0<
0@
#2065750000
0D
0E
0J
0K
0L
0M
0N
0P
0Q
0R
0S
0W
0Y
0[
0^
0_
0`
0!
0&
0)
0*
0,
0-
0.
0/
00
03
05
0:
0;
0?
#2066250000
1A
1B
1D
1G
1I
1K
1L
1M
1N
1O
1Q
1R
1W
1X
1[
1\
1_
1`
0"
1#
1%
1&
1(
1*
10
13
14
15
16
19
1:
1=
1>
1@
#2066350000
0D
0G
0I
0K
0L
0M
0N
0O
0Q
0R
0W
0X
0[
0\
0_
0`
0#
0%
0&
0(
0*
00
03
04
05
06
09
0:
0=
0>
0@
#2066450000
1D
1G
1I
1K
1L
1M
1N
1O
1Q
1R
1W
1X
1[
1\
1_
1`
1!
1"
1$
1'
1)
1+
1,
1-
1.
1/
11
12
17
18
1;
1<
1?
1@
#2066550000
0A
0B
0D
0G
0I
0K
0L
0M
0N
0O
0Q
0R
0W
0X
0[
0\
0_
0`
0!
0$
0'
0)
0+
0,
0-
0.
0/
01
02
07
08
0;
0<
0?
0@
#2066650000
1A
1B
1C
1F
1G
1H
1I
1O
1T
1U
1V
1X
1Z
1\
1]
1`
0"
1#
1$
1%
1'
1(
1+
11
12
14
16
17
18
19
1<
1=
1>
1?
#2066750000
0C
1D
0F
0H
1K
1L
1M
1N
1Q
1R
0T
0U
0V
1W
0Z
1[
0]
1_
0$
1&
0'
1*
0+
10
01
02
13
15
07
08
1:
0<
0?
1@
#2066850000
0D
1F
0G
1J
0K
1P
0Q
0R
1S
1U
0W
0X
1Z
0\
0`
0#
1$
0&
0(
1+
1,
1-
1.
11
12
04
05
06
17
0:
1;
0=
1?
#2066950000
0A
0B
0F
0I
0J
0L
0M
0N
0O
0P
0S
0U
0Z
0[
0_
1"
0$
0%
0*
0+
0,
0-
0.
00
01
02
03
07
09
0;
0>
0?
0@
#2067050000
1A
1B
1F
1I
1J
1L
1M
1N
1O
1P
1S
1U
1Z
1[
1_
0"
1$
1%
1*
1+
1,
1-
1.
10
11
12
13
17
19
1;
1>
1?
1@
#2067150000
1D
0F
1G
0J
1K
0P
1Q
1R
0S
0U
1W
1X
0Z
1\
1`
1!
1"
0%
1'
1)
0*
1/
00
03
18
09
1<
0>
#2067250000
0A
0B
1E
0G
0I
1J
0O
1P
1S
0X
1Y
0\
1^
0$
1&
0'
1*
0+
10
01
02
13
15
07
08
1:
0<
0@
#2067350000
0D
0E
0J
0K
0L
0M
0N
0P
0Q
0R
0S
0W
0Y
0[
0^
0_
0`
0!
0&
0)
0*
0,
0-
0.
0/
00
03
05
0:
0;
0?
#2067850000
1A
1B
1D
1G
1I
1K
1L
1M
1N
1O
1Q
1R
1W
1X
1[
1\
1_
1`
0"
1#
1%
1&
1(
1*
10
13
14
15
16
19
1:
1=
1>
1@
#2067950000
0D
0G
0I
0K
0L
0M
0N
0O
0Q
0R
0W
0X
0[
0\
0_
0`
0#
0%
0&
0(
0*
00
03
04
05
06
09
0:
0=
0>
0@
#2068050000
1D
1G
1I
1K
1L
1M
1N
1O
1Q
1R
1W
1X
1[
1\
1_
1`
1!
1"
1$
1'
1)
1+
1,
1-
1.
1/
11
12
17
18
1;
1<
1?
1@
#2068150000
0A
0B
0D
0G
0I
0K
0L
0M
0N
0O
0Q
0R
0W
0X
0[
0\
0_
0`
0!
0$
0'
0)
0+
0,
0-
0.
0/
01
02
07
08
0;
0<
0?
0@
#2068250000
1A
1B
1C
1F
1G
1H
1I
1O
1T
1U
1V
1X
1Z
1\
1]
1`
0"
1#
1$
1%
1'
1(
1+
11
12
14
16
17
18
19
1<
1=
1>
1?
#2068350000
0C
1D
0F
0H
1K
1L
1M
1N
1Q
1R
0T
0U
0V
1W
0Z
1[
0]
1_
0$
1&
0'
1*
0+
10
01
02
13
15
07
08
1:
0<
0?
1@
#2068450000
0D
1F
0G
1J
0K
1P
0Q
0R
1S
1U
0W
0X
1Z
0\
0`
0#
1$
0&
0(
1+
1,
1-
1.
11
12
04
05
06
17
0:
1;
0=
1?
#2068550000
0A
0B
0F
0I
0J
0L
0M
0N
0O
0P
0S
0U
0Z
0[
0_
1"
0$
0%
0*
0+
0,
0-
0.
00
01
02
03
07
09
0;
0>
0?
0@
#2068650000
1A
1B
1F
1I
1J
1L
1M
1N
1O
1P
1S
1U
1Z
1[
1_
0"
1$
1%
1*
1+
1,
1-
1.
10
11
12
13
17
19
1;
1>
1?
1@
#2068750000
1D
0F
1G
0J
1K
0P
1Q
1R
0S
0U
1W
1X
0Z
1\
1`
1!
1"
0%
1'
1)
0*
1/
00
03
18
09
1<
0>
#2068850000
0A
0B
1E
0G
0I
1J
0O
1P
1S
0X
1Y
0\
1^
0$
1&
0'
1*
0+
10
01
02
13
15
07
08
1:
0<
0@
#2068950000
0D
0E
0J
0K
0L
0M
0N
0P
0Q
0R
0S
0W
0Y
0[
0^
0_
0`
0!
0&
0)
0*
0,
0-
0.
0/
00
03
05
0:
0;
0?
#2069450000
1A
1B
1D
1G
1I
1K
1L
1M
1N
1O
1Q
1R
1W
1X
1[
1\
1_
1`
0"
1#
1%
1&
1(
1*
10
13
14
15
16
19
1:
1=
1>
1@
#2069550000
0D
0G
0I
0K
0L
0M
0N
0O
0Q
0R
0W
0X
0[
0\
0_
0`
0#
0%
0&
0(
0*
00
03
04
05
06
09
0:
0=
0>
0@
#2069650000
1D
1G
1I
1K
1L
1M
1N
1O
1Q
1R
1W
1X
1[
1\
1_
1`
1!
1"
1$
1'
1)
1+
1,
1-
1.
1/
11
12
17
18
1;
1<
1?
1@
#2069750000
0A
0B
0D
0G
0I
0K
0L
0M
0N
0O
0Q
0R
0W
0X
0[
0\
0_
0`
0!
0$
0'
0)
0+
0,
0-
0.
0/
01
02
07
08
0;
0<
0?
0@
#2069850000
1A
1B
1C
1F
1G
1H
1I
1O
1T
1U
1V
1X
1Z
1\
1]
1`
0"
1#
1$
1%
1'
1(
1+
11
12
14
16
17
18
19
1<
1=
1>
1?
#2069950000
0C
1D
0F
0H
1K
1L
1M
1N
1Q
1R
0T
0U
0V
1W
0Z
1[
0]
1_
0$
1&
0'
1*
0+
10
01
02
13
15
07
08
1:
0<
0?
1@
#2070050000
0D
1F
0G
1J
0K
1P
0Q
0R
1S
1U
0W
0X
1Z
0\
0`
0#
1$
0&
0(
1+
1,
1-
1.
11
12
04
05
06
17
0:
1;
0=
1?
#2070150000
0A
0B
0F
0I
0J
0L
0M
0N
0O
0P
0S
0U
0Z
0[
0_
1"
0$
0%
0*
0+
0,
0-
0.
00
01
02
03
07
09
0;
0>
0?
0@
#2070250000
1A
1B
1F
1I
1J
1L
1M
1N
1O
1P
1S
1U
1Z
1[
1_
0"
1$
1%
1*
1+
1,
1-
1.
10
11
12
13
17
19
1;
1>
1?
1@
#2070350000
1D
0F
1G
0J
1K
0P
1Q
1R
0S
0U
1W
1X
0Z
1\
1`
1!
1"
0%
1'
1)
0*
1/
00
03
18
09
1<
0>
#2070450000
0A
0B
1E
0G
0I
1J
0O
1P
1S
0X
1Y
0\
1^
0$
1&
0'
1*
0+
10
01
02
13
15
07
08
1:
0<
0@
#2070550000
0D
0E
0J
0K
0L
0M
0N
0P
0Q
0R
0S
0W
0Y
0[
0^
0_
0`
0!
0&
0)
0*
0,
0-
0.
0/
00
03
05
0:
0;
0?
#2071050000
1A
1B
1D
1G
1I
1K
1L
1M
1N
1O
1Q
1R
1W
1X
1[
1\
1_
1`
0"
1#
1%
1&
1(
1*
10
13
14
15
16
19
1:
1=
1>
1@
#2071150000
0D
0G
0I
0K
0L
0M
0N
0O
0Q
0R
0W
0X
0[
0\
0_
0`
0#
0%
0&
0(
0*
00
03
04
05
06
09
0:
0=
0>
0@
#2071250000
1D
1G
1I
1K
1L
1M
1N
1O
1Q
1R
1W
1X
1[
1\
1_
1`
1!
1"
1$
1'
1)
1+
1,
1-
1.
1/
11
12
17
18
1;
1<
1?
1@
#2071350000
0A
0B
0D
0G
0I
0K
0L
0M
0N
0O
0Q
0R
0W
0X
0[
0\
0_
0`
0!
0$
0'
0)
0+
0,
0-
0.
0/
01
02
07
08
0;
0<
0?
0@
#2071450000
1A
1B
1C
1F
1G
1H
1I
1O
1T
1U
1V
1X
1Z
1\
1]
1`
0"
1#
1$
1%
1'
1(
1+
11
12
14
16
17
18
19
1<
1=
1>
1?
#2071550000
0C
1D
0F
0H
1K
1L
1M
1N
1Q
1R
0T
0U
0V
1W
0Z
1[
0]
1_
0$
1&
0'
1*
0+
10
01
02
13
15
07
08
1:
0<
0?
1@
#2071650000
0D
1F
0G
1J
0K
1P
0Q
0R
1S
1U
0W
0X
1Z
0\
0`
0#
1$
0&
0(
1+
1,
1-
1.
11
12
04
05
06
17
0:
1;
0=
1?
#2071750000
0A
0B
0F
0I
0J
0L
0M
0N
0O
0P
0S
0U
0Z
0[
0_
1"
0$
0%
0*
0+
0,
0-
0.
00
01
02
03
07
09
0;
0>
0?
0@
#2071850000
1A
1B
1F
1I
1J
1L
1M
1N
1O
1P
1S
1U
1Z
1[
1_
0"
1$
1%
1*
1+
1,
1-
1.
10
11
12
13
17
19
1;
1>
1?
1@
#2071950000
1D
0F
1G
0J
1K
0P
1Q
1R
0S
0U
1W
1X
0Z
1\
1`
1!
1"
0%
1'
1)
0*
1/
00
03
18
09
1<
0>
#2072050000
0A
0B
1E
0G
0I
1J
0O
1P
1S
0X
1Y
0\
1^
0$
1&
0'
1*
0+
10
01
02
13
15
07
08
1:
0<
0@
#2072150000
0D
0E
0J
0K
0L
0M
0N
0P
0Q
0R
0S
0W
0Y
0[
0^
0_
0`
0!
0&
0)
0*
0,
0-
0.
0/
00
03
05
0:
0;
0?
#2072650000
1A
1B
1D
1G
1I
1K
1L
1M
1N
1O
1Q
1R
1W
1X
1[
1\
1_
1`
0"
1#
1%
1&
1(
1*
10
13
14
15
16
19
1:
1=
1>
1@
#2072750000
0D
0G
0I
0K
0L
0M
0N
0O
0Q
0R
0W
0X
0[
0\
0_
0`
0#
0%
0&
0(
0*
00
03
04
05
06
09
0:
0=
0>
0@
#2072850000
1D
1G
1I
1K
1L
1M
1N
1O
1Q
1R
1W
1X
1[
1\
1_
1`
1!
1"
1$
1'
1)
1+
1,
1-
1.
1/
11
12
17
18
1;
1<
1?
1@
#2072950000
0A
0B
0D
0G
0I
0K
0L
0M
0N
0O
0Q
0R
0W
0X
0[
0\
0_
0`
0!
0$
0'
0)
0+
0,
0-
0.
0/
01
02
07
08
0;
0<
0?
0@
#2073050000
1A
1B
1C
1F
1G
1H
1I
1O
1T
1U
1V
1X
1Z
1\
1]
1`
0"
1#
1$
1%
1'
1(
1+
11
12
14
16
17
18
19
1<
1=
1>
1?
#2073150000
0C
1D
0F
0H
1K
1L
1M
1N
1Q
1R
0T
0U
0V
1W
0Z
1[
0]
1_
0$
1&
0'
1*
0+
10
01
02
13
15
07
08
1:
0<
0?
1@
#2073250000
0D
1F
0G
1J
0K
1P
0Q
0R
1S
1U
0W
0X
1Z
0\
0`
0#
1$
0&
0(
1+
1,
1-
1.
11
12
04
05
06
17
0:
1;
0=
1?
#2073350000
0A
0B
0F
0I
0J
0L
0M
0N
0O
0P
0S
0U
0Z
0[
0_
1"
0$
0%
0*
0+
0,
0-
0.
00
01
02
03
07
09
0;
0>
0?
0@
#2073450000
1A
1B
1F
1I
1J
1L
1M
1N
1O
1P
1S
1U
1Z
1[
1_
0"
1$
1%
1*
1+
1,
1-
1.
10
11
12
13
17
19
1;
1>
1?
1@
#2073550000
1D
0F
1G
0J
1K
0P
1Q
1R
0S
0U
1W
1X
0Z
1\
1`
1!
1"
0%
1'
1)
0*
1/
00
03
18
09
1<
0>
#2073650000
0A
0B
1E
0G
0I
1J
0O
1P
1S
0X
1Y
0\
1^
0$
1&
0'
1*
0+
10
01
02
13
15
07
08
1:
0<
0@
#2073750000
0D
0E
0J
0K
0L
0M
0N
0P
0Q
0R
0S
0W
0Y
0[
0^
0_
0`
0!
0&
0)
0*
0,
0-
0.
0/
00
03
05
0:
0;
0?
#2074250000
1A
1B
1D
1G
1I
1K
1L
1M
1N
1O
1Q
1R
1W
1X
1[
1\
1_
1`
0"
1#
1%
1&
1(
1*
10
13
14
15
16
19
1:
1=
1>
1@
#2074350000
0D
0G
0I
0K
0L
0M
0N
0O
0Q
0R
0W
0X
0[
0\
0_
0`
0#
0%
0&
0(
0*
00
03
04
05
06
09
0:
0=
0>
0@
#2074450000
1D
1G
1I
1K
1L
1M
1N
1O
1Q
1R
1W
1X
1[
1\
1_
1`
1!
1"
1$
1'
1)
1+
1,
1-
1.
1/
11
12
17
18
1;
1<
1?
1@
#2074550000
0A
0B
0D
0G
0I
0K
0L
0M
0N
0O
0Q
0R
0W
0X
0[
0\
0_
0`
0!
0$
0'
0)
0+
0,
0-
0.
0/
01
02
07
08
0;
0<
0?
0@
#2074650000
1A
1B
1C
1F
1G
1H
1I
1O
1T
1U
1V
1X
1Z
1\
1]
1`
0"
1#
1$
1%
1'
1(
1+
11
12
14
16
17
18
19
1<
1=
1>
1?
#2074750000
0C
1D
0F
0H
1K
1L
1M
1N
1Q
1R
0T
0U
0V
1W
0Z
1[
0]
1_
0$
1&
0'
1*
0+
10
01
02
13
15
07
08
1:
0<
0?
1@
#2074850000
0D
1F
0G
1J
0K
1P
0Q
0R
1S
1U
0W
0X
1Z
0\
0`
0#
1$
0&
0(
1+
1,
1-
1.
11
12
04
05
06
17
0:
1;
0=
1?
#2074950000
0A
0B
0F
0I
0J
0L
0M
0N
0O
0P
0S
0U
0Z
0[
0_
1"
0$
0%
0*
0+
0,
0-
0.
00
01
02
03
07
09
0;
0>
0?
0@
#2075050000
1A
1B
1F
1I
1J
1L
1M
1N
1O
1P
1S
1U
1Z
1[
1_
0"
1$
1%
1*
1+
1,
1-
1.
10
11
12
13
17
19
1;
1>
1?
1@
#2075150000
1D
0F
1G
0J
1K
0P
1Q
1R
0S
0U
1W
1X
0Z
1\
1`
1!
1"
0%
1'
1)
0*
1/
00
03
18
09
1<
0>
#2075250000
0A
0B
1E
0G
0I
1J
0O
1P
1S
0X
1Y
0\
1^
0$
1&
0'
1*
0+
10
01
02
13
15
07
08
1:
0<
0@
#2075350000
0D
0E
0J
0K
0L
0M
0N
0P
0Q
0R
0S
0W
0Y
0[
0^
0_
0`
0!
0&
0)
0*
0,
0-
0.
0/
00
03
05
0:
0;
0?
#2075850000
1A
1B
1D
1G
1I
1K
1L
1M
1N
1O
1Q
1R
1W
1X
1[
1\
1_
1`
0"
1#
1%
1&
1(
1*
10
13
14
15
16
19
1:
1=
1>
1@
#2075950000
0D
0G
0I
0K
0L
0M
0N
0O
0Q
0R
0W
0X
0[
0\
0_
0`
0#
0%
0&
0(
0*
00
03
04
05
06
09
0:
0=
0>
0@
#2076050000
1D
1G
1I
1K
1L
1M
1N
1O
1Q
1R
1W
1X
1[
1\
1_
1`
1!
1"
1$
1'
1)
1+
1,
1-
1.
1/
11
12
17
18
1;
1<
1?
1@
#2076150000
0A
0B
0D
0G
0I
0K
0L
0M
0N
0O
0Q
0R
0W
0X
0[
0\
0_
0`
0!
0$
0'
0)
0+
0,
0-
0.
0/
01
02
07
08
0;
0<
0?
0@
#2076250000
1A
1B
1C
1F
1G
1H
1I
1O
1T
1U
1V
1X
1Z
1\
1]
1`
0"
1#
1$
1%
1'
1(
1+
11
12
14
16
17
18
19
1<
1=
1>
1?
#2076350000
0C
1D
0F
0H
1K
1L
1M
1N
1Q
1R
0T
0U
0V
1W
0Z
1[
0]
1_
0$
1&
0'
1*
0+
10
01
02
13
15
07
08
1:
0<
0?
1@
#2076450000
0D
1F
0G
1J
0K
1P
0Q
0R
1S
1U
0W
0X
1Z
0\
0`
0#
1$
0&
0(
1+
1,
1-
1.
11
12
04
05
06
17
0:
1;
0=
1?
#2076550000
0A
0B
0F
0I
0J
0L
0M
0N
0O
0P
0S
0U
0Z
0[
0_
1"
0$
0%
0*
0+
0,
0-
0.
00
01
02
03
07
09
0;
0>
0?
0@
#2076650000
1A
1B
1F
1I
1J
1L
1M
1N
1O
1P
1S
1U
1Z
1[
1_
0"
1$
1%
1*
1+
1,
1-
1.
10
11
12
13
17
19
1;
1>
1?
1@
#2076750000
1D
0F
1G
0J
1K
0P
1Q
1R
0S
0U
1W
1X
0Z
1\
1`
1!
1"
0%
1'
1)
0*
1/
00
03
18
09
1<
0>
#2076850000
0A
0B
1E
0G
0I
1J
0O
1P
1S
0X
1Y
0\
1^
0$
1&
0'
1*
0+
10
01
02
13
15
07
08
1:
0<
0@
#2076950000
0D
0E
0J
0K
0L
0M
0N
0P
0Q
0R
0S
0W
0Y
0[
0^
0_
0`
0!
0&
0)
0*
0,
0-
0.
0/
00
03
05
0:
0;
0?
#2077450000
1A
1B
1D
1G
1I
1K
1L
1M
1N
1O
1Q
1R
1W
1X
1[
1\
1_
1`
0"
1#
1%
1&
1(
1*
10
13
14
15
16
19
1:
1=
1>
1@
#2077550000
0D
0G
0I
0K
0L
0M
0N
0O
0Q
0R
0W
0X
0[
0\
0_
0`
0#
0%
0&
0(
0*
00
03
04
05
06
09
0:
0=
0>
0@
#2077650000
1D
1G
1I
1K
1L
1M
1N
1O
1Q
1R
1W
1X
1[
1\
1_
1`
1!
1"
1$
1'
1)
1+
1,
1-
1.
1/
11
12
17
18
1;
1<
1?
1@
#2077750000
0A
0B
0D
0G
0I
0K
0L
0M
0N
0O
0Q
0R
0W
0X
0[
0\
0_
0`
0!
0$
0'
0)
0+
0,
0-
0.
0/
01
02
07
08
0;
0<
0?
0@
#2077850000
1A
1B
1C
1F
1G
1H
1I
1O
1T
1U
1V
1X
1Z
1\
1]
1`
0"
1#
1$
1%
1'
1(
1+
11
12
14
16
17
18
19
1<
1=
1>
1?
#2077950000
0C
1D
0F
0H
1K
1L
1M
1N
1Q
1R
0T
0U
0V
1W
0Z
1[
0]
1_
0$
1&
0'
1*
0+
10
01
02
13
15
07
08
1:
0<
0?
1@
#2078050000
0D
1F
0G
1J
0K
1P
0Q
0R
1S
1U
0W
0X
1Z
0\
0`
0#
1$
0&
0(
1+
1,
1-
1.
11
12
04
05
06
17
0:
1;
0=
1?
#2078150000
0A
0B
0F
0I
0J
0L
0M
0N
0O
0P
0S
0U
0Z
0[
0_
1"
0$
0%
0*
0+
0,
0-
0.
00
01
02
03
07
09
0;
0>
0?
0@
#2078250000
1A
1B
1F
1I
1J
1L
1M
1N
1O
1P
1S
1U
1Z
1[
1_
0"
1$
1%
1*
1+
1,
1-
1.
10
11
12
13
17
19
1;
1>
1?
1@
#2078350000
1D
0F
1G
0J
1K
0P
1Q
1R
0S
0U
1W
1X
0Z
1\
1`
1!
1"
0%
1'
1)
0*
1/
00
03
18
09
1<
0>
#2078450000
0A
0B
1E
0G
0I
1J
0O
1P
1S
0X
1Y
0\
1^
0$
1&
0'
1*
0+
10
01
02
13
15
07
08
1:
0<
0@
#2078550000
0D
0E
0J
0K
0L
0M
0N
0P
0Q
0R
0S
0W
0Y
0[
0^
0_
0`
0!
0&
0)
0*
0,
0-
0.
0/
00
03
05
0:
0;
0?
#2079050000
1A
1B
1D
1G
1I
1K
1L
1M
1N
1O
1Q
1R
1W
1X
1[
1\
1_
1`
0"
1#
1%
1&
1(
1*
10
13
14
15
16
19
1:
1=
1>
1@
#2079150000
0D
0G
0I
0K
0L
0M
0N
0O
0Q
0R
0W
0X
0[
0\
0_
0`
0#
0%
0&
0(
0*
00
03
04
05
06
09
0:
0=
0>
0@
#2079250000
1D
1G
1I
1K
1L
1M
1N
1O
1Q
1R
1W
1X
1[
1\
1_
1`
1!
1"
1$
1'
1)
1+
1,
1-
1.
1/
11
12
17
18
1;
1<
1?
1@
#2079350000
0A
0B
0D
0G
0I
0K
0L
0M
0N
0O
0Q
0R
0W
0X
0[
0\
0_
0`
0!
0$
0'
0)
0+
0,
0-
0.
0/
01
02
07
08
0;
0<
0?
0@
#2079450000
1A
1B
1C
1F
1G
1H
1I
1O
1T
1U
1V
1X
1Z
1\
1]
1`
0"
1#
1$
1%
1'
1(
1+
11
12
14
16
17
18
19
1<
1=
1>
1?
#2079550000
0C
1D
0F
0H
1K
1L
1M
1N
1Q
1R
0T
0U
0V
1W
0Z
1[
0]
1_
0$
1&
0'
1*
0+
10
01
02
13
15
07
08
1:
0<
0?
1@
#2079650000
0D
1F
0G
1J
0K
1P
0Q
0R
1S
1U
0W
0X
1Z
0\
0`
0#
1$
0&
0(
1+
1,
1-
1.
11
12
04
05
06
17
0:
1;
0=
1?
#2079750000
0A
0B
0F
0I
0J
0L
0M
0N
0O
0P
0S
0U
0Z
0[
0_
1"
0$
0%
0*
0+
0,
0-
0.
00
01
02
03
07
09
0;
0>
0?
0@
#2079850000
1A
1B
1F
1I
1J
1L
1M
1N
1O
1P
1S
1U
1Z
1[
1_
0"
1$
1%
1*
1+
1,
1-
1.
10
11
12
13
17
19
1;
1>
1?
1@
#2079950000
1D
0F
1G
0J
1K
0P
1Q
1R
0S
0U
1W
1X
0Z
1\
1`
1!
1"
0%
1'
1)
0*
1/
00
03
18
09
1<
0>
#2080050000
0A
0B
1E
0G
0I
1J
0O
1P
1S
0X
1Y
0\
1^
0$
1&
0'
1*
0+
10
01
02
13
15
07
08
1:
0<
0@
#2080150000
0D
0E
0J
0K
0L
0M
0N
0P
0Q
0R
0S
0W
0Y
0[
0^
0_
0`
0!
0&
0)
0*
0,
0-
0.
0/
00
03
05
0:
0;
0?
